CongressAges.utf8.md
…
---

title: congress output: html_document 

People in Congress are Very Old

## # A tibble: 18,635 x 13
##    congress chamber bioguide firstname middlename lastname suffix
##       <int> <chr>   <chr>    <chr>     <chr>      <chr>    <chr> 
##  1      107 senate  T000254  J.        Strom      Thurmond <NA>  
##  2      106 senate  T000254  J.        Strom      Thurmond <NA>  
##  3      111 senate  B001210  Robert    C.         Byrd     <NA>  
##  4      105 senate  T000254  J.        Strom      Thurmond <NA>  
##  5      113 senate  L000123  Frank     R.         Lautenb <NA>  
##  6      104 senate  T000254  J.        Strom      Thurmond <NA>  
##  7       86 senate  G000418  Theodore  Francis    Green    <NA>  
##  8      112 senate  I000025  Daniel    K.         Inouye   <NA>  
##  9      103 senate  T000254  J.        Strom      Thurmond <NA>  
## 10      113 house   H000067  Ralph     M.         Hall     <NA>  
## #  with 18,625 more rows, and 6 more variables: birthday <date>,
## #   state <chr>, party <chr>, incumbent <lgl>, termstart <date>, age <dbl>
…
